Action, Number Of Threads, Upper Key, Data Structure, Total Operations
MIXED, 8, 1024, SnapCollector.IterableLockFreeSkipList, 9919822.4375
ITERATE, 8, 1024, SnapCollector.IterableLockFreeSkipList, 20293.4375
