Action, Number Of Threads, Upper Key, Data Structure, Total Operations
ITERATE, 9, 1024, SnapCollector.ConcurrentSkipListMapAdapter, 24402.9285714
MIXED, 9, 1024, SnapCollector.ConcurrentSkipListMapAdapter, 31732375.0
