Action, Number Of Threads, Upper Key, Data Structure, Total Operations
MIXED, 5, 1024, SnapCollector.IterableNonBlockingLinkedList, 1999696.71429
ITERATE, 5, 1024, SnapCollector.IterableNonBlockingLinkedList, 30286.7857143
