Action, Number Of Threads, Upper Key, Data Structure, Total Operations
MIXED, 4, 1024, SnapCollector.IterableLockFreeSkipList, 6382888.25
ITERATE, 4, 1024, SnapCollector.IterableLockFreeSkipList, 21022.8125
