Action, Number Of Threads, Upper Key, Data Structure, Total Operations
MIXED, 27, 32, SnapCollector.ConcurrentSkipListMapAdapter, 15786219.1429
ITERATE, 27, 32, SnapCollector.ConcurrentSkipListMapAdapter, 258748.571429
