Action, Number Of Threads, Upper Key, Data Structure, Total Operations
MIXED, 19, 128, SnapCollector.IterableLockFreeSkipList, 13216621.4375
ITERATE, 19, 128, SnapCollector.IterableLockFreeSkipList, 132069.9375
