Action, Number Of Threads, Upper Key, Data Structure, Total Operations
MIXED, 9, 32, SnapCollector.IterableLockFreeSkipList, 5555301.4375
ITERATE, 9, 32, SnapCollector.IterableLockFreeSkipList, 422580.0625
