Action, Number Of Threads, Upper Key, Data Structure, Total Operations
ITERATE, 18, 32, SnapCollector.ConcurrentSkipListMapAdapter, 272694.785714
MIXED, 18, 32, SnapCollector.ConcurrentSkipListMapAdapter, 15938973.2143
