Action, Number Of Threads, Upper Key, Data Structure, Total Operations
ITERATE, 30, 128, SnapCollector.ConcurrentSkipListMapAdapter, 150975.785714
MIXED, 30, 128, SnapCollector.ConcurrentSkipListMapAdapter, 29856748.3571
