Action, Number Of Threads, Upper Key, Data Structure, Total Operations
ITERATE, 3, 128, SnapCollector.IterableNonBlockingLinkedList, 191757.357143
MIXED, 3, 128, SnapCollector.IterableNonBlockingLinkedList, 8267964.92857
