Action, Number Of Threads, Upper Key, Data Structure, Total Operations
MIXED, 8, 1024, SnapCollector.ConcurrentSkipListMapAdapter, 27664554.7143
ITERATE, 8, 1024, SnapCollector.ConcurrentSkipListMapAdapter, 24586.2857143
