Action, Number Of Threads, Upper Key, Data Structure, Total Operations
ITERATE, 27, 1024, SnapCollector.IterableNonBlockingLinkedList, 26292.8571429
MIXED, 27, 1024, SnapCollector.IterableNonBlockingLinkedList, 9215029.07143
