Action, Number Of Threads, Upper Key, Data Structure, Total Operations
MIXED, 21, 1024, SnapCollector.IterableLockFreeSkipList, 20609939.75
ITERATE, 21, 1024, SnapCollector.IterableLockFreeSkipList, 16725.625
