Action, Number Of Threads, Upper Key, Data Structure, Total Operations
ITERATE, 26, 1024, SnapCollector.ConcurrentSkipListMapAdapter, 21318.2142857
MIXED, 26, 1024, SnapCollector.ConcurrentSkipListMapAdapter, 58444405.0714
