Action, Number Of Threads, Upper Key, Data Structure, Total Operations
MIXED, 10, 32, SnapCollector.IterableLockFreeSkipList, 6512221.875
ITERATE, 10, 32, SnapCollector.IterableLockFreeSkipList, 392234.3125
