Action, Number Of Threads, Upper Key, Data Structure, Total Operations
ITERATE, 19, 1024, SnapCollector.IterableNonBlockingLinkedList, 27095.1428571
MIXED, 19, 1024, SnapCollector.IterableNonBlockingLinkedList, 6789579.07143
