Action, Number Of Threads, Upper Key, Data Structure, Total Operations
ITERATE, 21, 32, SnapCollector.IterableNonBlockingLinkedList, 311774.214286
MIXED, 21, 32, SnapCollector.IterableNonBlockingLinkedList, 19694093.5714
