TestCase ID, Action, Start Time, End Time, Total Failures, Total Successes, Contains Successes, Inserts Successes, Delete Successes, Contains Failures, Inserts Failures, Delete Failures, Total Operations, Contains Percent, Inserts Percent, Deletes Percent, Number Of Threads, Lower Key, Upper Key, Data Structure, 
78, ITERATE, Fri Aug 25 23:23:43 IDT 2017, Fri Aug 25 23:23:45 IDT 2017, 0, 143069, 0, 0, 0, 0, 0, 0, 143069, 0.0, 0.0, 0.0, 8, 1, 128, SnapCollector.ConcurrentSkipListMapAdapter, 
78, MIXED, Fri Aug 25 23:23:43 IDT 2017, Fri Aug 25 23:23:45 IDT 2017, 1273639, 1271789, 636912, 317342, 317535, 637111, 318511, 318017, 2545428, 0.5005142553629488, 0.2498019979351213, 0.2496837467019299, 8, 1, 128, SnapCollector.ConcurrentSkipListMapAdapter, 
78, MIXED, Fri Aug 25 23:23:43 IDT 2017, Fri Aug 25 23:23:45 IDT 2017, 1289806, 1285045, 641940, 321893, 321212, 643953, 323783, 322070, 2574851, 0.4994048199293862, 0.2507624713041648, 0.249832708766449, 8, 1, 128, SnapCollector.ConcurrentSkipListMapAdapter, 
78, MIXED, Fri Aug 25 23:23:43 IDT 2017, Fri Aug 25 23:23:45 IDT 2017, 1192888, 1191249, 596686, 297144, 297419, 595882, 298483, 298523, 2384137, 0.5002095097722992, 0.24982918347393626, 0.24996130675376457, 8, 1, 128, SnapCollector.ConcurrentSkipListMapAdapter, 
78, MIXED, Fri Aug 25 23:23:43 IDT 2017, Fri Aug 25 23:23:45 IDT 2017, 1281776, 1279598, 640053, 320031, 319514, 641956, 319236, 320584, 2561374, 0.5005161292337628, 0.24957971776085805, 0.24990415300537913, 8, 1, 128, SnapCollector.ConcurrentSkipListMapAdapter, 
78, MIXED, Fri Aug 25 23:23:43 IDT 2017, Fri Aug 25 23:23:45 IDT 2017, 1186307, 1184003, 591677, 296431, 295895, 592651, 296621, 297035, 2370310, 0.4996511004889656, 0.2502001847859563, 0.25014871472507816, 8, 1, 128, SnapCollector.ConcurrentSkipListMapAdapter, 
78, MIXED, Fri Aug 25 23:23:43 IDT 2017, Fri Aug 25 23:23:45 IDT 2017, 1278179, 1275896, 637936, 319462, 318498, 638734, 319631, 319814, 2554075, 0.4998561122911426, 0.2502248367804391, 0.24991905092841832, 8, 1, 128, SnapCollector.ConcurrentSkipListMapAdapter, 
78, MIXED, Fri Aug 25 23:23:43 IDT 2017, Fri Aug 25 23:23:45 IDT 2017, 1177992, 1174539, 587139, 293243, 294157, 589413, 294315, 294264, 2352531, 0.5001217837299488, 0.24975568866042572, 0.25012252760962556, 8, 1, 128, SnapCollector.ConcurrentSkipListMapAdapter, 
78, MIXED, Fri Aug 25 23:23:43 IDT 2017, Fri Aug 25 23:23:45 IDT 2017, 1274912, 1272586, 635952, 317660, 318974, 637131, 319197, 318584, 2547498, 0.49973856701752073, 0.24999313051472463, 0.2502683024677546, 8, 1, 128, SnapCollector.ConcurrentSkipListMapAdapter, 
