TestCase ID, Action, Start Time, End Time, Total Failures, Total Successes, Contains Successes, Inserts Successes, Delete Successes, Contains Failures, Inserts Failures, Delete Failures, Total Operations, Contains Percent, Inserts Percent, Deletes Percent, Number Of Threads, Lower Key, Upper Key, Data Structure, 
47, MIXED, Sat Aug 26 03:31:03 IDT 2017, Sat Aug 26 03:31:05 IDT 2017, 359828, 357488, 179320, 89148, 89020, 180189, 89576, 90063, 717316, 0.5011863669568224, 0.24915657813292885, 0.24965705491024875, 16, 1, 128, SnapCollector.LockFreeSkipList, 
47, MIXED, Sat Aug 26 03:31:03 IDT 2017, Sat Aug 26 03:31:05 IDT 2017, 368208, 365142, 182677, 91017, 91448, 183621, 92490, 92097, 733350, 0.49948592077452786, 0.2502311311106566, 0.25028294811481555, 16, 1, 128, SnapCollector.LockFreeSkipList, 
47, MIXED, Sat Aug 26 03:31:03 IDT 2017, Sat Aug 26 03:31:05 IDT 2017, 366924, 363431, 182611, 90381, 90439, 183256, 91910, 91758, 730355, 0.500944061449569, 0.24959232154226368, 0.24946361700816727, 16, 1, 128, SnapCollector.LockFreeSkipList, 
47, MIXED, Sat Aug 26 03:31:03 IDT 2017, Sat Aug 26 03:31:05 IDT 2017, 360438, 357392, 179322, 89284, 88786, 180402, 90097, 89939, 717830, 0.5011270077873591, 0.24989342880626333, 0.24897956340637756, 16, 1, 128, SnapCollector.LockFreeSkipList, 
47, MIXED, Sat Aug 26 03:31:03 IDT 2017, Sat Aug 26 03:31:05 IDT 2017, 366089, 362992, 181625, 90285, 91082, 182911, 91384, 91794, 729081, 0.4999938278462887, 0.2491753316846825, 0.2508308404690288, 16, 1, 128, SnapCollector.LockFreeSkipList, 
47, MIXED, Sat Aug 26 03:31:03 IDT 2017, Sat Aug 26 03:31:05 IDT 2017, 361324, 358863, 179550, 89941, 89372, 180295, 90419, 90610, 720187, 0.4996549507280748, 0.25043495647658176, 0.24991009279534343, 16, 1, 128, SnapCollector.LockFreeSkipList, 
47, MIXED, Sat Aug 26 03:31:03 IDT 2017, Sat Aug 26 03:31:05 IDT 2017, 363430, 361010, 180775, 90232, 90003, 181218, 90766, 91446, 724440, 0.4996866545193529, 0.24984539782452653, 0.25046794765612057, 16, 1, 128, SnapCollector.LockFreeSkipList, 
47, MIXED, Sat Aug 26 03:31:03 IDT 2017, Sat Aug 26 03:31:05 IDT 2017, 355408, 351737, 176198, 88114, 87425, 177904, 88780, 88724, 707145, 0.5007487856097406, 0.25015237327563655, 0.24909884111462288, 16, 1, 128, SnapCollector.LockFreeSkipList, 
47, MIXED, Sat Aug 26 03:31:03 IDT 2017, Sat Aug 26 03:31:05 IDT 2017, 363946, 360598, 180781, 90052, 89765, 181595, 90986, 91365, 724544, 0.5001435385566646, 0.2498647425139122, 0.2499917189294232, 16, 1, 128, SnapCollector.LockFreeSkipList, 
47, MIXED, Sat Aug 26 03:31:03 IDT 2017, Sat Aug 26 03:31:05 IDT 2017, 352782, 349829, 174723, 87528, 87578, 175908, 88433, 88441, 702611, 0.49904000933660303, 0.2504387207145917, 0.25052126994880525, 16, 1, 128, SnapCollector.LockFreeSkipList, 
47, MIXED, Sat Aug 26 03:31:03 IDT 2017, Sat Aug 26 03:31:05 IDT 2017, 365311, 362444, 181863, 90311, 90270, 181731, 91797, 91783, 727755, 0.49961044582311354, 0.25023256453064563, 0.25015698964624083, 16, 1, 128, SnapCollector.LockFreeSkipList, 
47, MIXED, Sat Aug 26 03:31:03 IDT 2017, Sat Aug 26 03:31:05 IDT 2017, 351609, 349804, 175020, 87212, 87572, 175096, 87906, 88607, 701413, 0.49915812795029463, 0.2496646055890039, 0.2511772664607015, 16, 1, 128, SnapCollector.LockFreeSkipList, 
47, MIXED, Sat Aug 26 03:31:03 IDT 2017, Sat Aug 26 03:31:05 IDT 2017, 359532, 356395, 178650, 88508, 89237, 179609, 89933, 89990, 715927, 0.5004127515794208, 0.24924468556151674, 0.2503425628590624, 16, 1, 128, SnapCollector.LockFreeSkipList, 
47, MIXED, Sat Aug 26 03:31:03 IDT 2017, Sat Aug 26 03:31:05 IDT 2017, 360451, 358136, 179184, 89588, 89364, 179825, 90051, 90575, 718587, 0.49960408412620877, 0.24998921494544155, 0.25040670092834966, 16, 1, 128, SnapCollector.LockFreeSkipList, 
47, MIXED, Sat Aug 26 03:31:03 IDT 2017, Sat Aug 26 03:31:05 IDT 2017, 354302, 353630, 177038, 88138, 88454, 176866, 88303, 89133, 707932, 0.4999124209669855, 0.2492343897436477, 0.2508531892893668, 16, 1, 128, SnapCollector.LockFreeSkipList, 
47, MIXED, Sat Aug 26 03:31:03 IDT 2017, Sat Aug 26 03:31:05 IDT 2017, 361524, 357802, 179456, 89220, 89126, 180465, 90740, 90319, 719326, 0.5003586690874513, 0.2501786394485949, 0.24946269146395375, 16, 1, 128, SnapCollector.LockFreeSkipList, 
