TestCase ID, Action, Start Time, End Time, Total Failures, Total Successes, Contains Successes, Inserts Successes, Delete Successes, Contains Failures, Inserts Failures, Delete Failures, Total Operations, Contains Percent, Inserts Percent, Deletes Percent, Number Of Threads, Lower Key, Upper Key, Data Structure, 
76, ITERATE, Sun Aug 20 00:22:35 IDT 2017, Sun Aug 20 00:22:37 IDT 2017, 0, 14154, 0, 0, 0, 0, 0, 0, 14154, 0.0, 0.0, 0.0, 16, 1, 1024, SnapCollector.IterableLockFreeSkipList, 
76, MIXED, Sun Aug 20 00:22:35 IDT 2017, Sun Aug 20 00:22:37 IDT 2017, 598037, 598423, 299680, 149493, 149250, 299055, 149343, 149639, 1196460, 0.5004220784648045, 0.24976681209568227, 0.24981110943951323, 16, 1, 1024, SnapCollector.IterableLockFreeSkipList, 
76, MIXED, Sun Aug 20 00:22:35 IDT 2017, Sun Aug 20 00:22:37 IDT 2017, 598028, 598283, 299242, 149533, 149508, 299090, 149807, 149131, 1196311, 0.5001475368863113, 0.25021921557187055, 0.24963324754181815, 16, 1, 1024, SnapCollector.IterableLockFreeSkipList, 
76, MIXED, Sun Aug 20 00:22:35 IDT 2017, Sun Aug 20 00:22:37 IDT 2017, 564055, 564951, 282746, 140913, 141292, 282357, 141016, 140682, 1129006, 0.5005314409312263, 0.24971435049946591, 0.24975420856930786, 16, 1, 1024, SnapCollector.IterableLockFreeSkipList, 
76, MIXED, Sun Aug 20 00:22:35 IDT 2017, Sun Aug 20 00:22:37 IDT 2017, 570355, 569334, 284541, 142360, 142433, 284115, 143352, 142888, 1139689, 0.49895717164945874, 0.2506929522001177, 0.2503498761504235, 16, 1, 1024, SnapCollector.IterableLockFreeSkipList, 
76, MIXED, Sun Aug 20 00:22:35 IDT 2017, Sun Aug 20 00:22:37 IDT 2017, 521520, 521532, 261997, 129706, 129829, 260667, 130763, 130090, 1043052, 0.5010910290186875, 0.24971813485808952, 0.24919083612322301, 16, 1, 1024, SnapCollector.IterableLockFreeSkipList, 
76, MIXED, Sun Aug 20 00:22:35 IDT 2017, Sun Aug 20 00:22:37 IDT 2017, 587625, 587635, 293726, 146918, 146991, 294466, 146531, 146628, 1175260, 0.5004781920596294, 0.24968857954835524, 0.24983322839201538, 16, 1, 1024, SnapCollector.IterableLockFreeSkipList, 
76, MIXED, Sun Aug 20 00:22:35 IDT 2017, Sun Aug 20 00:22:37 IDT 2017, 590791, 591071, 296226, 147465, 147380, 294947, 147946, 147898, 1181862, 0.5002047616388376, 0.2499538863251378, 0.2498413520360245, 16, 1, 1024, SnapCollector.IterableLockFreeSkipList, 
76, MIXED, Sun Aug 20 00:22:35 IDT 2017, Sun Aug 20 00:22:37 IDT 2017, 586751, 586849, 293785, 146502, 146562, 293301, 146514, 146936, 1173600, 0.5002436946148603, 0.24967280163599181, 0.2500835037491479, 16, 1, 1024, SnapCollector.IterableLockFreeSkipList, 
76, MIXED, Sun Aug 20 00:22:35 IDT 2017, Sun Aug 20 00:22:37 IDT 2017, 555811, 555572, 277804, 138978, 138790, 277961, 138981, 138869, 1111383, 0.500066133817055, 0.25010190006505406, 0.24983196611789096, 16, 1, 1024, SnapCollector.IterableLockFreeSkipList, 
76, MIXED, Sun Aug 20 00:22:35 IDT 2017, Sun Aug 20 00:22:37 IDT 2017, 596488, 597205, 298907, 149031, 149267, 298428, 149127, 148933, 1193693, 0.5004092342000833, 0.24977779043690462, 0.24981297536301209, 16, 1, 1024, SnapCollector.IterableLockFreeSkipList, 
76, MIXED, Sun Aug 20 00:22:35 IDT 2017, Sun Aug 20 00:22:37 IDT 2017, 558138, 557668, 279190, 139702, 138776, 279246, 139184, 139708, 1115806, 0.5004776816041498, 0.2499412980392649, 0.24958102035658528, 16, 1, 1024, SnapCollector.IterableLockFreeSkipList, 
76, MIXED, Sun Aug 20 00:22:35 IDT 2017, Sun Aug 20 00:22:37 IDT 2017, 588856, 588383, 294366, 146916, 147101, 294121, 147357, 147378, 1177239, 0.4998874485130037, 0.24996878288945576, 0.2501437685975405, 16, 1, 1024, SnapCollector.IterableLockFreeSkipList, 
76, MIXED, Sun Aug 20 00:22:35 IDT 2017, Sun Aug 20 00:22:37 IDT 2017, 559566, 560015, 280668, 139714, 139633, 278927, 140437, 140202, 1119581, 0.49982538110239455, 0.25022843367295444, 0.249946185224651, 16, 1, 1024, SnapCollector.IterableLockFreeSkipList, 
76, MIXED, Sun Aug 20 00:22:35 IDT 2017, Sun Aug 20 00:22:37 IDT 2017, 594004, 595178, 296876, 148989, 149313, 296552, 148905, 148547, 1189182, 0.4990220168149198, 0.25050328713350856, 0.2504746960515716, 16, 1, 1024, SnapCollector.IterableLockFreeSkipList, 
76, MIXED, Sun Aug 20 00:22:35 IDT 2017, Sun Aug 20 00:22:37 IDT 2017, 562170, 561010, 280449, 140344, 140217, 280724, 140282, 141164, 1123180, 0.49962873270535446, 0.24984953435780552, 0.25052173293684005, 16, 1, 1024, SnapCollector.IterableLockFreeSkipList, 
76, MIXED, Sun Aug 20 00:22:35 IDT 2017, Sun Aug 20 00:22:37 IDT 2017, 592953, 591112, 296240, 147319, 147553, 297009, 148318, 147626, 1184065, 0.5010273929218413, 0.24967970508375806, 0.24929290199440066, 16, 1, 1024, SnapCollector.IterableLockFreeSkipList, 
