TestCase ID, Action, Start Time, End Time, Total Failures, Total Successes, Contains Successes, Inserts Successes, Delete Successes, Contains Failures, Inserts Failures, Delete Failures, Total Operations, Contains Percent, Inserts Percent, Deletes Percent, Number Of Threads, Lower Key, Upper Key, Data Structure, Number of Items, 
71, MIXED, Tue Aug 29 04:30:57 IDT 2017, Tue Aug 29 04:30:59 IDT 2017, 751937, 753003, 376183, 188349, 188471, 376344, 188058, 187535, 1504940, 0.5000378752641301, 0.2501142902707085, 0.2498478344651614, 9, 1, 1024, SnapCollector.LockFreeSkipList, 0, 
71, MIXED, Tue Aug 29 04:30:57 IDT 2017, Tue Aug 29 04:30:59 IDT 2017, 796831, 796359, 398196, 199721, 198442, 397909, 199781, 199141, 1593190, 0.4996924409518011, 0.250756030354195, 0.24955152869400385, 9, 1, 1024, SnapCollector.LockFreeSkipList, 0, 
71, MIXED, Tue Aug 29 04:30:57 IDT 2017, Tue Aug 29 04:30:59 IDT 2017, 792336, 790531, 394992, 197570, 197969, 396267, 197792, 198277, 1582867, 0.49988975700422084, 0.2497758813595836, 0.2503343616361956, 9, 1, 1024, SnapCollector.LockFreeSkipList, 0, 
71, MIXED, Tue Aug 29 04:30:57 IDT 2017, Tue Aug 29 04:30:59 IDT 2017, 737216, 737827, 369197, 184396, 184234, 368866, 184157, 184193, 1475043, 0.500367107941938, 0.24985915664831465, 0.24977373540974737, 9, 1, 1024, SnapCollector.LockFreeSkipList, 0, 
71, MIXED, Tue Aug 29 04:30:57 IDT 2017, Tue Aug 29 04:30:59 IDT 2017, 799477, 799598, 399373, 199698, 200527, 399382, 199725, 200370, 1599075, 0.499510654597189, 0.24978378124853431, 0.2507055641542767, 9, 1, 1024, SnapCollector.LockFreeSkipList, 0, 
71, MIXED, Tue Aug 29 04:30:57 IDT 2017, Tue Aug 29 04:30:59 IDT 2017, 740029, 738657, 369363, 185165, 184129, 370830, 184507, 184692, 1478686, 0.5005748346843075, 0.2500003381380496, 0.24942482717764286, 9, 1, 1024, SnapCollector.LockFreeSkipList, 0, 
71, MIXED, Tue Aug 29 04:30:57 IDT 2017, Tue Aug 29 04:30:59 IDT 2017, 802184, 800757, 400846, 199622, 200289, 401237, 200275, 200672, 1602941, 0.5003821101338103, 0.24947705498829964, 0.2501408348778901, 9, 1, 1024, SnapCollector.LockFreeSkipList, 0, 
71, MIXED, Tue Aug 29 04:30:57 IDT 2017, Tue Aug 29 04:30:59 IDT 2017, 719756, 718608, 359080, 180011, 179517, 359289, 180717, 179750, 1438364, 0.49943477450770457, 0.25079048140804416, 0.24977474408425127, 9, 1, 1024, SnapCollector.LockFreeSkipList, 0, 
71, MIXED, Tue Aug 29 04:30:57 IDT 2017, Tue Aug 29 04:30:59 IDT 2017, 796134, 795354, 396998, 198743, 199613, 397678, 198962, 199494, 1591488, 0.4993289299071058, 0.24989506675513734, 0.25077600333775685, 9, 1, 1024, SnapCollector.LockFreeSkipList, 0, 
